<?xml version="1.0" encoding="utf-8"?>
<!-- Generator: Adobe Illustrator 16.0.4, SVG Export Plug-In . SVG Version: 6.00 Build 0)  -->
<!DOCTYPE svg PUBLIC "-//W3C//DTD SVG 1.1//EN" "http://www.w3.org/Graphics/SVG/1.1/DTD/svg11.dtd">
<svg version="1.1" id="Layer_1" xmlns="http://www.w3.org/2000/svg" xmlns:xlink="http://www.w3.org/1999/xlink" x="0px" y="0px"
	 width="1191.161px" height="8px" viewBox="0 0 1191.161 8" enable-background="new 0 0 1191.161 8" xml:space="preserve">
<g opacity="0.7">
	<rect fill="#009AA6" width="198.53" height="8"/>
	<rect x="198.53" fill="#E98300" width="198.524" height="8"/>
	<rect x="397.055" fill="#57068C" width="198.524" height="8"/>
	<rect x="595.579" fill="#B6BF00" width="198.529" height="8"/>
	<rect x="794.108" fill="#E0249A" width="198.521" height="8"/>
	<rect x="992.63" fill="#0073CF" width="198.531" height="8"/>
</g>
</svg>
